%YAML 1.1
%TAG !u! tag:unity3d.com,2011:
--- !u!114 &11400000
MonoBehaviour:
  m_ObjectHideFlags: 0
  m_PrefabParentObject: {fileID: 0}
  m_PrefabInternal: {fileID: 0}
  m_GameObject: {fileID: 0}
  m_Enabled: 1
  m_EditorHideFlags: 0
  m_Script: {fileID: 11500000, guid: d120d2ab009edb74a9c4801334898526, type: 3}
  m_Name: Base Bag
  m_EditorClassIdentifier: 
  assetPaths:
    keys:
    - Icon
    values:
    - 
  overrideParent:
    keys:
    - flavorText
    - Icon
    - bagSize
    - bindType
    - equipmentSlot
    - itemType
    - maxStack
    - sellPrice
    - stackable
    - testList2
    - consumeOnUse
    - useInteractText
    - useText
    - useTime
    - armor
    - armorType
    - damage
    - weaponDelay
    - weaponType
    values: 00010100000100000000000000000000000000
  _datablockId: 2
  parent: {fileID: 11400000, guid: 00d3702e8e900594ca8417c1e6fe1f23, type: 2}
  Icon: {fileID: 2800000, guid: 28f37fe0b599ec842a7cf3788281b7e3, type: 3}
  bindType: 0
  equipmentSlot: 0
  flavorText: 
  sellPrice: 1
  stackable: 0
  maxStack: 0
  itemType: 5
  bagSize: 5
  consumeOnUse: 0
  useInteractText: 
  useText: 
  useTime: 0
  armor: 0
  armorType: 0
  damage: 0
  weaponDelay: 0
  weaponType: 0
