%YAML 1.1
%TAG !u! tag:unity3d.com,2011:
--- !u!114 &11400000
MonoBehaviour:
  m_ObjectHideFlags: 0
  m_PrefabParentObject: {fileID: 0}
  m_PrefabInternal: {fileID: 0}
  m_GameObject: {fileID: 0}
  m_Enabled: 1
  m_EditorHideFlags: 0
  m_Script: {fileID: 11500000, guid: 3a59a9b2c85a5764fa48d7257ee8e0f7, type: 3}
  m_Name: Base Spider
  m_EditorClassIdentifier: 
  assetPaths:
    keys: []
    values: []
  overrideParent:
    keys:
    - attack
    values: 00
  _datablockId: 10
  parent: {fileID: 11400000, guid: e4bb1e8677b404a4fa3e2c47f0fbcffe, type: 2}
  attack: 3
  defense: 0
  lootTable:
  - {fileID: 11400000, guid: ef8c4502d8dc7624aa2ddb0d91be4aa1, type: 2}
  model: {fileID: 142698, guid: 62b4fd8bce6f3504bbbf4a9cb4de84a6, type: 2}
  modelColor: {r: 0, g: 0, b: 0, a: 0}
