%YAML 1.1
%TAG !u! tag:unity3d.com,2011:
--- !u!114 &11400000
MonoBehaviour:
  m_ObjectHideFlags: 0
  m_PrefabParentObject: {fileID: 0}
  m_PrefabInternal: {fileID: 0}
  m_GameObject: {fileID: 0}
  m_Enabled: 1
  m_EditorHideFlags: 0
  m_Script: {fileID: 11500000, guid: d120d2ab009edb74a9c4801334898526, type: 3}
  m_Name: Base Hammer
  m_EditorClassIdentifier: 
  assetPaths:
    keys:
    - Icon
    values:
    - Icons/weapons/icon_hammer04
  overrideParent:
    keys:
    - flavorText
    - Icon
    - bagSize
    - bindType
    - equipmentSlot
    - itemType
    - maxStack
    - sellPrice
    - stackable
    - testList2
    - consumeOnUse
    - useInteractText
    - useText
    - useTime
    - armor
    - armorType
    - damage
    - weaponDelay
    - weaponType
    values: 00010100000001000000010101010101000001
  _datablockId: 6
  parent: {fileID: 11400000, guid: 85365c3e9593d9b43bada2f78db12c2c, type: 2}
  Icon: {fileID: 2800000, guid: c6666fb299e819e448107bb44b2deb07, type: 3}
  bindType: 2
  equipmentSlot: 2
  flavorText: A hamme
  sellPrice: 1
  stackable: 0
  maxStack: 0
  itemType: 2
  bagSize: 0
  consumeOnUse: 0
  useInteractText: 
  useText: 
  useTime: 0
  armor: 0
  armorType: 0
  damage: 1
  weaponDelay: 1
  weaponType: 4
